# ACTS Test Suite Generation: Sun Jan 17 22:57:26 CET 2021
#  '*' represents don't care value 
# Degree of interaction coverage: 2
# Number of parameters: 6
# Maximum number of values per parameter: 2
# Number of configurations: 10
Name,Description,Identifier,Homepage,Public,Inherit
valid_project,valid,validp,valid,true,true
valid_project,valid,validp,valid,true,false
valid_project,valid,validp,valid,false,true
valid_project,valid,validp,valid,false,false
NULL,valid,validp,valid,false,false
valid_project,valid,NULL,valid,true,true
valid_project,valid,AAA,valid,false,false
NULL,valid,validp,valid,true,true
valid_project,valid,AAA,valid,true,true
valid_project,valid,NULL,valid,false,false
