# ACTS Test Suite Generation: Sun Jan 17 21:03:19 CET 2021
#  '*' represents don't care value 
# Degree of interaction coverage: 2
# Number of parameters: 7
# Maximum number of values per parameter: 1
# Number of configurations: 10
Login,Password,Confirm,First_name,Last_name,Email,Language
valid_login,valid_password,valid_confirm,valid_fname,valid_lname,valid_mail,valid_language
valid_login,invalid_password,valid_confirm,valid_fname,valid_lname,valid_mail,valid_language
valid_login,invalid_too_long_password,valid_confirm,valid_fname,valid_lname,valid_mail,valid_language
invalid_login,valid_password,valid_confirm,valid_fname,valid_lname,valid_mail,valid_language
invalid_too_long,valid_password,valid_confirm,valid_fname,valid_lname,valid_mail,valid_language
valid_login,valid_password,invalid_confirm,valid_fname,valid_lname,valid_mail,valid_language
valid_login,valid_password,invalid_too_long_confirm,valid_fname,valid_lname,valid_mail,valid_language
valid_login,valid_password,valid_confirm,invalid_fname,valid_lname,valid_mail,valid_language
valid_login,valid_password,valid_confirm,valid_fname,invalid_lname,valid_mail,valid_language
valid_login,valid_password,valid_confirm,valid_fname,valid_lname,invalid_mail,valid_language
