# ACTS Test Suite Generation: Sun Jan 17 22:56:12 CET 2021
#  '*' represents don't care value 
# Degree of interaction coverage: -1
# Number of parameters: 7
# Maximum number of values per parameter: 1
# Number of configurations: 5
Login,Password,Confirm,First_name,Last_name,Email,Language
valid_login,valid_password,valid_confirm,valid_fname,valid_lname,valid_mail,valid_language
valid_login,invalid_password,valid_confirm,valid_fname,valid_lname,valid_mail,valid_language
valid_login,invalid_too_long_password,valid_confirm,valid_fname,valid_lname,valid_mail,valid_language
valid_login,valid_password,invalid_confirm,valid_fname,valid_lname,valid_mail,valid_language
valid_login,valid_password,invalid_too_long_confirm,valid_fname,valid_lname,valid_mail,valid_language
